M48
; DRILL file {KiCad (5.1.7)-1} date 11/12/20 17:06:52
; FORMAT={-:-/ absolute / inch / decimal}
; #@! TF.CreationDate,2020-11-12T17:06:52+01:00
; #@! TF.GenerationSoftware,Kicad,Pcbnew,(5.1.7)-1
; #@! TF.FileFunction,NonPlated,1,2,NPTH
FMAT,2
INCH
T1C0.0256
%
G90
G05
T1
X5.8425Y-3.589
T1
G00X5.565Y-3.589
M15
G01X5.5531Y-3.589
M16
G05
T0
M30
